%YAML 1.1
%TAG !u! tag:unity3d.com,2011:
--- !u!114 &11400000
MonoBehaviour:
  m_ObjectHideFlags: 0
  m_CorrespondingSourceObject: {fileID: 0}
  m_PrefabInstance: {fileID: 0}
  m_PrefabAsset: {fileID: 0}
  m_GameObject: {fileID: 0}
  m_Enabled: 1
  m_EditorHideFlags: 0
  m_Script: {fileID: 11500000, guid: 346f6aa9eb80ed540ac40beacc5fb9d7, type: 3}
  m_Name: Level_3
  m_EditorClassIdentifier: 
  levelPrefab: {fileID: 4554966111833551722, guid: 518715b50ef20e143a3d0f39fbec472a,
    type: 3}
  levelName: Abandoned Dungeon
